…
# Now should all be the same, can we rbind?

all_fixtures <- rbind(fixture_data, open_football_21_24)

all_fixtures
```

    # A tibble: 1,520 × 12
       match_number round_number date_utc            home_team     away_team     
              <dbl>        <dbl> <dttm>              <chr>         <chr>         
     1            1            1 2024-08-16 19:00:00 Man Utd       Fulham        
     2            2            1 2024-08-17 11:30:00 Ipswich       Liverpool     
     3            3            1 2024-08-17 14:00:00 Arsenal       Wolves        
     4            4            1 2024-08-17 14:00:00 Everton       Brighton      
     5            5            1 2024-08-17 14:00:00 Newcastle     Southampton   
     6            6            1 2024-08-17 14:00:00 Nott'm Forest Bournemouth   
     7            7            1 2024-08-17 16:30:00 West Ham      Aston Villa   
     8            8            1 2024-08-18 13:00:00 Brentford     Crystal Palace
     9            9            1 2024-08-18 15:30:00 Chelsea       Man City      
    10           10            1 2024-08-19 19:00:00 Leicester     Spurs         
    # ℹ 1,510 more rows
    # ℹ 7 more variables: home_team_score <dbl>, away_team_score <dbl>,
    #   home_code <dbl>, home_short_name <chr>, away_code <dbl>,
    #   away_short_name <chr>, season_end <dbl>
…
